<svg width="48" height="48" viewBox="0 0 48 48" fill="none" xmlns="http://www.w3.org/2000/svg">
<path d="M45.75 10.5H42V9.74998C42.0017 8.33745 41.6403 6.94819 40.9504 5.71558C40.2606 4.48296 39.2654 3.44838 38.0605 2.71114C36.8557 1.97391 35.4815 1.55877 34.07 1.5056C32.6584 1.45242 31.2569 1.76299 30 2.40748C28.7431 1.76299 27.3416 1.45242 25.93 1.5056C24.5185 1.55877 23.1443 1.97391 21.9395 2.71114C20.7346 3.44838 19.7394 4.48296 19.0496 5.71558C18.3597 6.94819 17.9983 8.33745 18 9.74998V10.5H11.25C11.0511 10.5 10.8603 10.579 10.7197 10.7196C10.579 10.8603 10.5 11.0511 10.5 11.25V25.5375C10.2525 25.515 10.005 25.5 9.75 25.5C7.99552 25.4983 6.28629 26.0566 4.87105 27.0936C3.45581 28.1306 2.40841 29.5921 1.88128 31.2655C1.35415 32.9389 1.3748 34.7369 1.94022 36.3978C2.50564 38.0587 3.58632 39.4958 5.025 40.5H3.75C3.15381 40.5018 2.58255 40.7394 2.16098 41.161C1.73941 41.5825 1.50178 42.1538 1.5 42.75V44.25C1.50178 44.8462 1.73941 45.4174 2.16098 45.839C2.58255 46.2606 3.15381 46.4982 3.75 46.5H17.25C17.7139 46.4976 18.1659 46.3523 18.5443 46.0839C18.9228 45.8155 19.2093 45.437 19.365 45H32.25C32.8462 44.9982 33.4175 44.7606 33.839 44.339C34.2606 43.9174 34.4982 43.3462 34.5 42.75V42H41.25C42.6419 41.9984 43.9763 41.4448 44.9606 40.4605C45.9448 39.4763 46.4984 38.1419 46.5 36.75V11.25C46.5 11.0511 46.421 10.8603 46.2803 10.7196C46.1397 10.579 45.9489 10.5 45.75 10.5ZM33.75 2.99998C35.5394 3.00276 37.2546 3.71481 38.5199 4.98008C39.7852 6.24534 40.4972 7.96062 40.5 9.74998V10.5H34.5V9.74998C34.5 8.53422 34.2311 7.33351 33.7124 6.23393C33.1938 5.13436 32.4382 4.16316 31.5 3.38998C32.2226 3.13382 32.9834 3.00195 33.75 2.99998ZM33.75 17.25C33.9489 17.25 34.1397 17.171 34.2803 17.0303C34.421 16.8897 34.5 16.6989 34.5 16.5V15.21C34.786 15.3751 35.0095 15.6299 35.1358 15.935C35.2622 16.2401 35.2843 16.5783 35.1989 16.8972C35.1134 17.2162 34.9251 17.498 34.6631 17.699C34.4012 17.9001 34.0802 18.009 33.75 18.009C33.4198 18.009 33.0988 17.9001 32.8369 17.699C32.5749 17.498 32.3866 17.2162 32.3011 16.8972C32.2157 16.5783 32.2378 16.2401 32.3642 15.935C32.4905 15.6299 32.714 15.3751 33 15.21V16.5C33 16.6989 33.079 16.8897 33.2197 17.0303C33.3603 17.171 33.5511 17.25 33.75 17.25ZM30 4.13998C30.9222 4.75693 31.6783 5.59145 32.2015 6.56986C32.7247 7.54827 32.9989 8.64046 33 9.74998V10.5H27V9.74998C27.0011 8.64046 27.2753 7.54827 27.7985 6.56986C28.3217 5.59145 29.0778 4.75693 30 4.13998ZM19.5 9.74998C19.4984 8.66967 19.7565 7.60481 20.2526 6.64513C20.7487 5.68545 21.4681 4.85906 22.3504 4.2356C23.2326 3.61214 24.2518 3.20988 25.322 3.06272C26.3923 2.91555 27.4822 3.02779 28.5 3.38998C27.5618 4.16316 26.8062 5.13436 26.2876 6.23393C25.7689 7.33351 25.5 8.53422 25.5 9.74998V10.5H19.5V9.74998ZM18.75 17.25C18.9489 17.25 19.1397 17.171 19.2803 17.0303C19.421 16.8897 19.5 16.6989 19.5 16.5V15.21C19.786 15.3751 20.0095 15.6299 20.1358 15.935C20.2622 16.2401 20.2844 16.5783 20.1989 16.8972C20.1134 17.2162 19.9251 17.498 19.6631 17.699C19.4012 17.9001 19.0802 18.009 18.75 18.009C18.4198 18.009 18.0988 17.9001 17.8369 17.699C17.5749 17.498 17.3866 17.2162 17.3011 16.8972C17.2156 16.5783 17.2378 16.2401 17.3642 15.935C17.4905 15.6299 17.714 15.3751 18 15.21V16.5C18 16.6989 18.079 16.8897 18.2197 17.0303C18.3603 17.171 18.5511 17.25 18.75 17.25ZM3 33.75C3 32.415 3.39588 31.1099 4.13758 29.9999C4.87928 28.8898 5.93349 28.0247 7.16689 27.5138C8.40029 27.0029 9.75749 26.8692 11.0669 27.1297C12.3762 27.3901 13.579 28.033 14.523 28.977C15.467 29.921 16.1099 31.1237 16.3703 32.4331C16.6308 33.7425 16.4971 35.0997 15.9862 36.3331C15.4753 37.5665 14.6101 38.6207 13.5001 39.3624C12.3901 40.1041 11.085 40.5 9.75 40.5C7.96064 40.4972 6.24537 39.7851 4.9801 38.5199C3.71483 37.2546 3.00278 35.5393 3 33.75ZM18 44.25C18 44.4489 17.921 44.6397 17.7803 44.7803C17.6397 44.921 17.4489 45 17.25 45H3.75C3.55109 45 3.36032 44.921 3.21967 44.7803C3.07902 44.6397 3 44.4489 3 44.25V42.75C3 42.5511 3.07902 42.3603 3.21967 42.2196C3.36032 42.079 3.55109 42 3.75 42H17.25C17.4489 42 17.6397 42.079 17.7803 42.2196C17.921 42.3603 18 42.5511 18 42.75V44.25ZM16.635 40.5H14.475C16.0291 39.4138 17.1604 37.8242 17.6775 36H18.135C18.0477 36.2405 18.002 36.4941 18 36.75V38.25C18.0011 38.5379 18.0571 38.823 18.165 39.09C17.8148 39.1834 17.4925 39.3605 17.226 39.6062C16.9595 39.8518 16.7566 40.1585 16.635 40.5ZM30.75 31.5C30.9489 31.5 31.1397 31.579 31.2803 31.7196C31.421 31.8603 31.5 32.0511 31.5 32.25V33.75C31.5 33.9489 31.421 34.1397 31.2803 34.2803C31.1397 34.421 30.9489 34.5 30.75 34.5H17.9625C17.985 34.2525 18 34.005 18 33.75C18.0002 32.9884 17.8916 32.2308 17.6775 31.5H30.75ZM19.5 29.25V27.75C19.5 27.5511 19.579 27.3603 19.7197 27.2196C19.8603 27.079 20.0511 27 20.25 27H33.75C33.9489 27 34.1397 27.079 34.2803 27.2196C34.421 27.3603 34.5 27.5511 34.5 27.75V29.25C34.5 29.4489 34.421 29.6397 34.2803 29.7803C34.1397 29.921 33.9489 30 33.75 30H20.25C20.0511 30 19.8603 29.921 19.7197 29.7803C19.579 29.6397 19.5 29.4489 19.5 29.25ZM33 42.75C33 42.9489 32.921 43.1397 32.7803 43.2803C32.6397 43.421 32.4489 43.5 32.25 43.5H19.5V42.75C19.4988 42.3259 19.3778 41.9108 19.1509 41.5525C18.9239 41.1942 18.6004 40.9073 18.2175 40.725C18.287 40.6541 18.3698 40.5977 18.4612 40.5591C18.5526 40.5205 18.6508 40.5004 18.75 40.5H32.25C32.4489 40.5 32.6397 40.579 32.7803 40.7196C32.921 40.8603 33 41.0511 33 41.25V42.75ZM33.75 39H20.25C20.0511 39 19.8603 38.921 19.7197 38.7803C19.579 38.6397 19.5 38.4489 19.5 38.25V36.75C19.5 36.5511 19.579 36.3603 19.7197 36.2196C19.8603 36.079 20.0511 36 20.25 36H33.75C33.9489 36 34.1397 36.079 34.2803 36.2196C34.421 36.3603 34.5 36.5511 34.5 36.75V38.25C34.5 38.4489 34.421 38.6397 34.2803 38.7803C34.1397 38.921 33.9489 39 33.75 39ZM36.75 40.5H34.365C34.3517 40.4712 34.3416 40.441 34.335 40.41C34.8111 40.2826 35.2321 40.0021 35.533 39.6117C35.8339 39.2213 35.998 38.7428 36 38.25V36.75C35.9982 36.1538 35.7606 35.5825 35.339 35.161C34.9175 34.7394 34.3462 34.5018 33.75 34.5H32.865C32.9523 34.2595 32.998 34.0058 33 33.75V32.25C32.998 31.9941 32.9523 31.7405 32.865 31.5H33.75C34.3462 31.4982 34.9175 31.2606 35.339 30.839C35.7606 30.4174 35.9982 29.8462 36 29.25V27.75C35.9982 27.1538 35.7606 26.5825 35.339 26.161C34.9175 25.7394 34.3462 25.5018 33.75 25.5H20.25C19.6538 25.5018 19.0825 25.7394 18.661 26.161C18.2394 26.5825 18.0018 27.1538 18 27.75V29.25C18.002 29.5058 18.0477 29.7595 18.135 30H17.0925C16.5751 28.9919 15.8561 28.1009 14.9801 27.3823C14.1041 26.6637 13.0897 26.1328 12 25.8225V12H18V13.605C17.293 13.7875 16.6769 14.2216 16.267 14.826C15.8572 15.4303 15.6819 16.1634 15.7739 16.8877C15.8659 17.6121 16.2189 18.278 16.7668 18.7607C17.3147 19.2434 18.0198 19.5097 18.75 19.5097C19.4802 19.5097 20.1853 19.2434 20.7332 18.7607C21.2811 18.278 21.6341 17.6121 21.7261 16.8877C21.8181 16.1634 21.6428 15.4303 21.233 14.826C20.8231 14.2216 20.207 13.7875 19.5 13.605V12H33V13.605C32.293 13.7875 31.6769 14.2216 31.267 14.826C30.8572 15.4303 30.6819 16.1634 30.7739 16.8877C30.8659 17.6121 31.2189 18.278 31.7668 18.7607C32.3147 19.2434 33.0198 19.5097 33.75 19.5097C34.4802 19.5097 35.1853 19.2434 35.7332 18.7607C36.2811 18.278 36.6341 17.6121 36.7261 16.8877C36.8181 16.1634 36.6428 15.4303 36.2329 14.826C35.8231 14.2216 35.207 13.7875 34.5 13.605V12H40.5V36.75C40.5 37.7445 40.1049 38.6984 39.4016 39.4016C38.6984 40.1049 37.7446 40.5 36.75 40.5ZM45 36.75C45 37.7445 44.6049 38.6984 43.9016 39.4016C43.1984 40.1049 42.2446 40.5 41.25 40.5H40.4175C40.9186 40.0125 41.3169 39.4294 41.5887 38.7853C41.8605 38.1412 42.0004 37.4491 42 36.75V12H45V36.75Z" fill="black"/>
<path d="M9 31.5H10.5C10.6989 31.5 10.8897 31.579 11.0303 31.7197C11.171 31.8603 11.25 32.0511 11.25 32.25C11.25 32.4489 11.329 32.6397 11.4697 32.7803C11.6103 32.921 11.8011 33 12 33C12.1989 33 12.3897 32.921 12.5303 32.7803C12.671 32.6397 12.75 32.4489 12.75 32.25C12.75 31.6533 12.5129 31.081 12.091 30.659C11.669 30.2371 11.0967 30 10.5 30V29.25C10.5 29.0511 10.421 28.8603 10.2803 28.7197C10.1397 28.579 9.94891 28.5 9.75 28.5C9.55109 28.5 9.36032 28.579 9.21967 28.7197C9.07902 28.8603 9 29.0511 9 29.25V30C8.40326 30 7.83097 30.2371 7.40901 30.659C6.98705 31.081 6.75 31.6533 6.75 32.25C6.75 32.8467 6.98705 33.419 7.40901 33.841C7.83097 34.2629 8.40326 34.5 9 34.5H10.5C10.6989 34.5 10.8897 34.579 11.0303 34.7197C11.171 34.8603 11.25 35.0511 11.25 35.25C11.25 35.4489 11.171 35.6397 11.0303 35.7803C10.8897 35.921 10.6989 36 10.5 36H9C8.80109 36 8.61032 35.921 8.46967 35.7803C8.32902 35.6397 8.25 35.4489 8.25 35.25C8.25 35.0511 8.17098 34.8603 8.03033 34.7197C7.88968 34.579 7.69891 34.5 7.5 34.5C7.30109 34.5 7.11032 34.579 6.96967 34.7197C6.82902 34.8603 6.75 35.0511 6.75 35.25C6.75 35.8467 6.98705 36.419 7.40901 36.841C7.83097 37.2629 8.40326 37.5 9 37.5V38.25C9 38.4489 9.07902 38.6397 9.21967 38.7803C9.36032 38.921 9.55109 39 9.75 39C9.94891 39 10.1397 38.921 10.2803 38.7803C10.421 38.6397 10.5 38.4489 10.5 38.25V37.5C11.0967 37.5 11.669 37.2629 12.091 36.841C12.5129 36.419 12.75 35.8467 12.75 35.25C12.75 34.6533 12.5129 34.081 12.091 33.659C11.669 33.2371 11.0967 33 10.5 33H9C8.80109 33 8.61032 32.921 8.46967 32.7803C8.32902 32.6397 8.25 32.4489 8.25 32.25C8.25 32.0511 8.32902 31.8603 8.46967 31.7197C8.61032 31.579 8.80109 31.5 9 31.5Z" fill="#E31E24"/>
</svg>
